{
  "version": "49d1603",
  "changelog": [
    "Bug fixes",
    "Automatic Updater now supports Linux",
    "Dynamic updating from version.json",
    "Added virtual display flag '--virtual-display'",
    "Only show flags that are enabled",
    "Added --currency so you can manually adjust currency to the correct one",
    "Added new line in notifications for 'Overall Points'",
    "Telegram message bug (for messages over 4096 characters)",
    "Avoid checking for new updates using '--dont-check-for-updates'",
    "Double ctrl+c support",
    "Repeat MSN shopping with '--repeat-shopping'",
    "Improved rewardstimator"
  ]
}
